<?xml version="1.0" standalone="no"?>
<!DOCTYPE svg PUBLIC "-//W3C//DTD SVG 20010904//EN"
 "http://www.w3.org/TR/2001/REC-SVG-20010904/DTD/svg10.dtd">
<svg version="1.0" xmlns="http://www.w3.org/2000/svg"
 width="260.000000pt" height="260.000000pt" viewBox="0 0 260.000000 260.000000"
 preserveAspectRatio="xMidYMid meet">
<metadata>
Created by potrace 1.11, written by Peter Selinger 2001-2013
</metadata>
<g transform="translate(0.000000,260.000000) scale(0.100000,-0.100000)"
fill="#000000" stroke="none">
<path d="M141 2549 c-21 -9 -48 -27 -61 -40 -47 -50 -53 -82 -55 -284 -1 -104
3 -198 8 -209 5 -10 5 -16 0 -13 -11 7 -10 -453 1 -472 6 -9 5 -12 0 -8 -6 3
-9 -239 -9 -646 1 -645 1 -652 22 -692 47 -88 138 -127 232 -99 58 17 117 73
131 123 5 20 10 173 12 341 l3 305 27 50 c32 60 77 105 138 137 37 19 60 23
130 23 73 0 92 -4 137 -27 56 -30 113 -92 140 -154 14 -33 17 -84 19 -352 2
-297 4 -315 24 -354 63 -122 217 -147 314 -51 55 54 58 69 61 417 3 360 -1
386 -63 520 -120 255 -371 410 -647 401 -55 -2 -111 -6 -125 -9 -48 -11 -135
-39 -147 -49 -10 -7 -12 101 -13 498 0 408 -3 513 -14 539 -44 106 -161 152
-265 105z"/>
<path d="M2347 1434 c-1 -1 -29 -5 -62 -9 -281 -32 -526 -264 -581 -550 -2
-11 -6 -31 -9 -45 -17 -84 -1 -196 33 -235 45 -53 84 -70 158 -70 61 0 76 4
112 29 44 30 78 88 86 146 3 19 8 57 11 85 18 136 126 234 275 249 78 8 107
17 143 47 143 118 70 338 -117 352 -26 2 -47 2 -49 1z"/>
<path d="M2350 940 c-43 -8 -77 -27 -108 -60 -35 -37 -50 -78 -57 -156 -13
-151 -112 -272 -236 -288 -19 -3 -56 -8 -83 -11 -110 -15 -181 -94 -179 -200
1 -81 37 -136 113 -175 39 -20 54 -22 133 -17 237 15 449 148 562 352 55 99
85 214 90 345 5 135 -105 234 -235 210z"/>
</g>
</svg>
